20201204-p8122_hw4_jsg2145
…
20201204-p8122_hw4_jsg2145

Jared Garfinkel

12/4/2020

data = read_tsv("./data/gardasil.dat.txt") %>% 
  janitor::clean_names() %>% 
  select(-c(x11:x12))
data

## # A tibble: 1,413 x 10
##      age age_group  race shots completed insurance_type med_assist location
##    <dbl>     <dbl> <dbl> <dbl>     <dbl>          <dbl>      <dbl>    <dbl>
##  1    21         1     0     3         1              3          0        1
##  2    21         1     0     3         1              3          0        1
##  3    20         1     0     1         0              1          0        1
##  4    14         0     0     3         1              3          0        1
##  5    17         0     3     2         0              3          0        1
##  6    11         0     1     1         0              0          1        1
##  7    17         0     0     1         0              3          0        1
##  8    15         0     3     3         1              1          0        1
##  9    13         0     3     3         1              1          0        1
## 10    18         1     0     3         1              2          0        1
## # ... with 1,403 more rows, and 2 more variables: location_type <dbl>,
## #   practice_type <dbl>
…
